{
  "project_info": {
    "project_number": "814693439114",
    "firebase_url": "https://wptilbud-b4a3b.firebaseio.com",
    "project_id": "wptilbud-b4a3b",
    "storage_bucket": "wptilbud-b4a3b.appspot.com"
  },
  "client": [
    {
      "client_info": {
        "mobilesdk_app_id": "1:814693439114:android:d6410082b935b9c8",
        "android_client_info": {
          "package_name": "com.wptilbud.wptilbud"
        }
      },
      "oauth_client": [
        {
          "client_id": "814693439114-1jutjunlvatf15cmd273di9b9hebonnr.apps.googleusercontent.com",
          "client_type": 3
        }
      ],
      "api_key": [
        {
          "current_key": "AIzaSyAJDCv9bQeMLCZotAxMtXRQsdIfV0du8Jg"
        }
      ],
      "services": {
        "analytics_service": {
          "status": 1
        },
        "appinvite_service": {
          "status": 1,
          "other_platform_oauth_client": []
        },
        "ads_service": {
          "status": 2
        }
      }
    }
  ],
  "configuration_version": "1"
}